<?xml version="1.0" encoding="iso-8859-1"?>
<!-- Generator: Adobe Illustrator 19.0.0, SVG Export Plug-In . SVG Version: 6.00 Build 0)  -->
<svg version="1.1" id="Capa_1" xmlns="http://www.w3.org/2000/svg" xmlns:xlink="http://www.w3.org/1999/xlink" x="0px" y="0px"
	 viewBox="0 0 512 512" style="enable-background:new 0 0 512 512;" xml:space="preserve">
<linearGradient id="SVGID_1_" gradientUnits="userSpaceOnUse" x1="437.0193" y1="76.9807" x2="74.9807" y2="439.0193" gradientTransform="matrix(1 0 0 -1 0 514)">
	<stop  offset="0" style="stop-color:#FFD400"/>
	<stop  offset="1" style="stop-color:#FFF6D2"/>
</linearGradient>
<circle style="fill:url(#SVGID_1_);" cx="256" cy="256" r="256"/>
<g>
	
		<linearGradient id="SVGID_2_" gradientUnits="userSpaceOnUse" x1="123" y1="326.9995" x2="373.01" y2="326.9995" gradientTransform="matrix(1 0 0 -1 0 514)">
		<stop  offset="0" style="stop-color:#00A6FF"/>
		<stop  offset="1" style="stop-color:#00459F"/>
	</linearGradient>
	<path style="fill:url(#SVGID_2_);" d="M442.97,269.667l-61.012-165.333H130.042L69.03,269.667h122.024l-52.771-143h235.434
		l-52.771,143H442.97z M85.56,255.627l44.481-120.538l44.481,120.538L85.56,255.627L85.56,255.627z M426.44,255.627h-88.963
		l44.481-120.538L426.44,255.627z"/>
	
		<linearGradient id="SVGID_3_" gradientUnits="userSpaceOnUse" x1="123" y1="327" x2="373.01" y2="327" gradientTransform="matrix(1 0 0 -1 0 514)">
		<stop  offset="0" style="stop-color:#00A6FF"/>
		<stop  offset="1" style="stop-color:#00459F"/>
	</linearGradient>
	<path style="fill:url(#SVGID_3_);" d="M442.97,269.67l-61.01-165.34H256v22.34h117.72l-52.77,143H442.97z M381.96,135.09
		l44.48,120.54h-88.96L381.96,135.09z"/>
</g>
<linearGradient id="SVGID_4_" gradientUnits="userSpaceOnUse" x1="237.68" y1="292.165" x2="274.322" y2="292.165" gradientTransform="matrix(1 0 0 -1 0 514)">
	<stop  offset="0" style="stop-color:#006EF5"/>
	<stop  offset="1" style="stop-color:#002D6B"/>
</linearGradient>
<rect x="237.68" y="55" style="fill:url(#SVGID_4_);" width="36.642" height="333.67"/>
<linearGradient id="SVGID_5_" gradientUnits="userSpaceOnUse" x1="205.333" y1="105.7655" x2="306.667" y2="105.7655" gradientTransform="matrix(1 0 0 -1 0 514)">
	<stop  offset="0" style="stop-color:#00A6FF"/>
	<stop  offset="1" style="stop-color:#00459F"/>
</linearGradient>
<path style="fill:url(#SVGID_5_);" d="M306.667,431.401H205.333v-17c0-16.133,13.2-29.333,29.333-29.333h42.667
	c16.133,0,29.333,13.2,29.333,29.333v17H306.667z"/>
<linearGradient id="SVGID_6_" gradientUnits="userSpaceOnUse" x1="174.67" y1="75" x2="337.34" y2="75" gradientTransform="matrix(1 0 0 -1 0 514)">
	<stop  offset="0" style="stop-color:#006EF5"/>
	<stop  offset="1" style="stop-color:#002D6B"/>
</linearGradient>
<rect x="174.67" y="423" style="fill:url(#SVGID_6_);" width="162.67" height="32"/>
<g>
	
		<linearGradient id="SVGID_7_" gradientUnits="userSpaceOnUse" x1="98" y1="217.25" x2="391.54" y2="217.25" gradientTransform="matrix(1 0 0 -1 0 514)">
		<stop  offset="0" style="stop-color:#FF491C"/>
		<stop  offset="1" style="stop-color:#B61A00"/>
	</linearGradient>
	<path style="fill:url(#SVGID_7_);" d="M130.042,342.5L130.042,342.5c-37.667,0-68.486-30.819-68.486-68.486V251h136.972v23.014
		C198.528,311.681,167.709,342.5,130.042,342.5z"/>
	
		<linearGradient id="SVGID_8_" gradientUnits="userSpaceOnUse" x1="98" y1="217.25" x2="391.54" y2="217.25" gradientTransform="matrix(1 0 0 -1 0 514)">
		<stop  offset="0" style="stop-color:#FF491C"/>
		<stop  offset="1" style="stop-color:#B61A00"/>
	</linearGradient>
	<path style="fill:url(#SVGID_8_);" d="M381.958,342.5L381.958,342.5c-37.667,0-68.486-30.819-68.486-68.486V251h136.972v23.014
		C450.444,311.681,419.626,342.5,381.958,342.5z"/>
</g>
<g>
</g>
<g>
</g>
<g>
</g>
<g>
</g>
<g>
</g>
<g>
</g>
<g>
</g>
<g>
</g>
<g>
</g>
<g>
</g>
<g>
</g>
<g>
</g>
<g>
</g>
<g>
</g>
<g>
</g>
</svg>
